…
  return(estimated_likely_votes_2020)
  
}
estimate_likely_2020(county_party_prop_model(georgia_fixed))
```

    ## # A tibble: 159 x 62
    ##    estimated_dem_v… estimated_rep_v… estimated_dem_v… estimated_rep_v…
    ##               <dbl>            <dbl>            <int>            <dbl>
    ##  1            1289.            5494.             1411             5372
    ##  2             876.            1635.              695             1816
    ##  3             742.            3067.              506             3303
    ##  4             557.             729.              545              741
    ##  5            8384.            7136.             7784             7736
    ##  6             816.            5978.              737             6057
    ##  7            5528.           21528.             6828            20228
    ##  8            8685.           28213.             8714            28184
    ##  9            1906.            3603.             2054             3455
    ## 10             762.            5447.             1006             5203
    ## # … with 149 more rows, and 58 more variables: prior_dem_count <dbl>,
    ## #   prior_rep_b_count <dbl>, prior_rep_count <dbl>,
    ## #   prior_dem_b_count <dbl>, prior_dem <dbl>, prior_rep <dbl>,
    ## #   post_dem <dbl>, post_rep <dbl>, county <chr>, vote_pct_2018 <dbl>,
    ## #   vote_pct_2016 <dbl>, vote_pct_2012 <dbl>, Kemp_Votes <dbl>,
    ## #   Abrams_Votes <dbl>, total_population <dbl>, trump16 <dbl>,
    ## #   clinton16 <dbl>, otherpres16 <dbl>, demsen16 <dbl>, repsen16 <dbl>,
    ## #   othersen16 <dbl>, demhouse16 <dbl>, rephouse16 <dbl>,
    ## #   otherhouse16 <dbl>, demgov16 <dbl>, repgov16 <dbl>, othergov16 <dbl>,
…
